…
```r
c_steps_each_day_mean_median <- summarise(steps_by_day, mean = mean(steps, na.rm = T), median = median(steps, na.rm = T))
c_steps_each_day_mean_median
```

```
## # A tibble: 61 x 3
##    date          mean median
##    <fct>        <dbl>  <dbl>
##  1 2012-10-01 NaN        NA 
##  2 2012-10-02   0.438     0.
##  3 2012-10-03  39.4       0.
##  4 2012-10-04  42.1       0.
##  5 2012-10-05  46.2       0.
##  6 2012-10-06  53.5       0.
##  7 2012-10-07  38.2       0.
##  8 2012-10-08 NaN        NA 
##  9 2012-10-09  44.5       0.
## 10 2012-10-10  34.4       0.
## # ... with 51 more rows
```
…
```r
c_filled_steps_each_day_mean_median <- summarise(filled_steps_by_day, mean = mean(steps, na.rm = T), median = median(steps, na.rm = T))
c_filled_steps_each_day_mean_median
```

```
## # A tibble: 61 x 3
##    date         mean median
##    <fct>       <dbl>  <dbl>
##  1 2012-10-01 37.4     34.1
##  2 2012-10-02  0.438    0. 
##  3 2012-10-03 39.4      0. 
##  4 2012-10-04 42.1      0. 
##  5 2012-10-05 46.2      0. 
##  6 2012-10-06 53.5      0. 
##  7 2012-10-07 38.2      0. 
##  8 2012-10-08 37.4     34.1
##  9 2012-10-09 44.5      0. 
## 10 2012-10-10 34.4      0. 
## # ... with 51 more rows
```
…
